AirNow: Sites ‘known locations’ Table
…
mask <- duplicated(sites_locationTbl$locationID)
duplicate_locationIDs <- sites_locationTbl$locationID[mask]

# # Review duplicates visually
# sites_locationTbl %>%
#   dplyr::filter(locationID %in% duplicate_locationIDs) %>%
#   View()

# Show the differentiating fields
sites_locationTbl %>%
  dplyr::filter(locationID %in% duplicate_locationIDs) %>%
  dplyr::select(airnow_status, airnow_AQSID, airnow_agencyName)

## # A tibble: 22 × 3
##    airnow_status airnow_AQSID airnow_agencyName                           
##    <chr>         <chr>        <chr>                                       
##  1 Inactive      069999915    California Air Resources Board              
##  2 Inactive      410711001    Oregon Dept. of Environmental Quality       
##  3 Active        021700008    State of Alaska DEC                         
##  4 Inactive      020200008    State of Alaska DEC                         
##  5 Inactive      061030006    Tehama County Air Pollution Control District
##  6 Inactive      150031010    Hawaii State Dept. of Health                
##  7 Inactive      840530390006 Washington Department of Ecology            
##  8 Inactive      840MM0230001 Washington Department of Ecology            
##  9 Inactive      113490351007 Utah Department of Environmental Quality    
## 10 Active        150030010    Hawaii State Dept. of Health                
## # … with 12 more rows
…
