AQS 88101 ‘Known Locations’
…
## [1] FALSE

Impose 500 Meter Separation

As described in the Introduction, we want the AirFire “known locations” table to have a measurement scale >= 500 meters. We will use functions from MazamaLocationUtils to identify overlapping locations and deal with them on an individual basis.

Find Overlapping Locations

distance_table <- 
  dplyr::select(known_locations_0, longitude, latitude) %>%
  MazamaLocationUtils::table_findOverlappingDistances(radius = 250)

print(distance_table)

## # A tibble: 37 × 3
##     row1  row2 distance
##    <int> <int>    <dbl>
##  1   389   390     32.5
##  2  1255  1256     39.6
##  3   854   855     46.0
##  4   889   890     53.1
##  5   901   904     55.5
##  6   790   791     68.9
##  7   774   781     73.9
##  8    36    40     74.8
##  9  1019  1021     80.4
## 10  1065  1067     88.1
## # … with 27 more rows
…
